<?xml version="1.0" encoding="UTF-8" standalone="no"?>
<svg
   xmlns:dc="http://purl.org/dc/elements/1.1/"
   xmlns:cc="http://creativecommons.org/ns#"
   xmlns:rdf="http://www.w3.org/1999/02/22-rdf-syntax-ns#"
   xmlns:svg="http://www.w3.org/2000/svg"
   xmlns="http://www.w3.org/2000/svg"
   xmlns:xlink="http://www.w3.org/1999/xlink"
   xmlns:sodipodi="http://sodipodi.sourceforge.net/DTD/sodipodi-0.dtd"
   xmlns:inkscape="http://www.inkscape.org/namespaces/inkscape"
   inkscape:version="1.0.2 (e86c870879, 2021-01-15)"
   sodipodi:docname="codeberg_logo_text_only.svg"
   id="svg10"
   version="1.1"
   viewBox="0 0 100 58">
  <metadata
     id="metadata16">
    <rdf:RDF>
      <cc:Work
         rdf:about="">
        <dc:format>image/svg+xml</dc:format>
        <dc:type
           rdf:resource="http://purl.org/dc/dcmitype/StillImage" />
        <dc:title></dc:title>
      </cc:Work>
    </rdf:RDF>
  </metadata>
  <defs
     id="defs14">
    <linearGradient
       xlink:href="#linearGradient6924"
       id="linearGradient6918"
       x1="42519.285"
       y1="-7078.7891"
       x2="42575.336"
       y2="-6966.9307"
       gradientUnits="userSpaceOnUse" />
    <linearGradient
       id="linearGradient6924">
      <stop
         style="stop-color:#ffffff;stop-opacity:0"
         offset="0"
         id="stop6920" />
      <stop
         id="stop6926"
         offset="0.49517274"
         style="stop-color:#71c2ff;stop-opacity:1" />
      <stop
         style="stop-color:#39aaff;stop-opacity:1"
         offset="1"
         id="stop6922" />
    </linearGradient>
  </defs>
  <sodipodi:namedview
     inkscape:current-layer="layer1"
     inkscape:cy="17.573059"
     inkscape:cx="6.6612221"
     inkscape:zoom="6.6465517"
     showgrid="false"
     id="namedview12"
     inkscape:window-height="1080"
     inkscape:window-width="1920"
     inkscape:pageshadow="2"
     inkscape:pageopacity="0"
     guidetolerance="10"
     gridtolerance="10"
     objecttolerance="10"
     borderopacity="1"
     bordercolor="#666666"
     pagecolor="#ffffff"
     inkscape:document-rotation="0"
     inkscape:window-x="0"
     inkscape:window-y="0"
     inkscape:window-maximized="0" />
  <!-- outline -->
  <!-- small shadow -->
  <!-- mountain in foreground -->
  <!-- text -->
  <g
     transform="matrix(0.49902103,0,0,0.49902103,16.383035,-5.830387)"
     id="layer1">
    <path
       d="m 24.873505,94.159183 c -2.289473,0 -4.077174,0.769112 -5.363844,2.306742 -1.303717,1.537594 -1.955947,3.567805 -1.955947,6.091485 0,1.93864 0.476572,3.62706 1.428975,5.06441 1.320394,2.00554 3.325628,3.00812 6.016815,3.00812 1.871082,0 3.500914,-0.69374 4.888384,-2.08095 L 28.609,106.5687 c -1.236271,0.78556 -2.305408,1.17834 -3.208523,1.17834 -1.370794,0 -2.465501,-0.52641 -3.284493,-1.57932 -0.768593,-1.00287 -1.15326,-2.2065 -1.15326,-3.61031 0,-1.58777 0.326114,-2.874698 0.977973,-3.86075 0.752658,-1.153185 1.813642,-1.729889 3.183323,-1.729889 0.986126,0 2.080834,0.43451 3.284493,1.303569 l 1.278888,-2.080204 C 28.082399,94.83639 26.477766,94.159183 24.873505,94.159183 Z m 45.435176,0 -3.158123,1.779808 v 14.389839 h 2.557405 l 0.250886,-1.12768 c 0.768593,0.95262 1.854407,1.42879 3.257811,1.42879 1.421193,0 2.616699,-0.42662 3.585778,-1.27897 1.236271,-1.11976 1.854407,-2.76582 1.854407,-4.93848 0,-1.68805 -0.417279,-3.04176 -1.252206,-4.06124 -0.953144,-1.153188 -2.273909,-1.729855 -3.961181,-1.729855 -0.602571,0 -1.154001,0.11703 -1.655402,0.351018 -0.635183,0.300766 -1.128431,0.718786 -1.479375,1.253647 z m -16.999094,0.04992 -3.160347,1.755238 v 3.634918 c -0.785269,-0.635071 -1.754348,-0.952551 -2.907238,-0.952551 -1.33744,0 -2.482177,0.443145 -3.434579,1.328917 -1.269995,1.186615 -1.905177,2.874295 -1.905177,5.063665 0,1.55435 0.393191,2.82479 1.17846,3.8108 0.935726,1.18665 2.296884,1.77985 4.084956,1.77985 0.635923,0 1.2548,-0.1422 1.855888,-0.42633 0.601459,-0.28405 1.036526,-0.64318 1.304459,-1.07773 l 0.451001,1.20295 h 2.532577 z m -17.785475,4.437605 c -1.638726,0 -2.967643,0.517818 -3.986381,1.554012 -1.120648,1.13647 -1.680973,2.62385 -1.680973,4.46221 0,1.62119 0.501402,2.99214 1.504204,4.11189 1.120648,1.23676 2.508859,1.85512 4.16315,1.85512 1.420451,0 2.665245,-0.4848 3.734382,-1.45411 1.287412,-1.15322 1.930747,-2.65772 1.930747,-4.5129 0,-1.58766 -0.433955,-2.93285 -1.303347,-4.03589 -1.036525,-1.320321 -2.490329,-1.980332 -4.361782,-1.980332 z m 24.855491,0 c -1.620938,0 -2.958007,0.53505 -4.01158,1.604662 -1.169936,1.1699 -1.755089,2.64865 -1.755089,4.43691 0,1.82175 0.518448,3.25084 1.554603,4.28703 1.086925,1.10305 2.600023,1.65463 4.538552,1.65463 1.804747,0 3.308951,-0.53506 4.51261,-1.60467 l -0.802686,-1.67923 c -1.186613,0.66849 -2.323196,1.00246 -3.40901,1.00246 -0.769334,0 -1.437869,-0.25066 -2.005604,-0.75202 -0.553654,-0.51812 -0.863463,-1.1616 -0.928686,-1.93038 h 7.822674 v -1.153 c 0,-1.65462 -0.434696,-3.00044 -1.304088,-4.03663 -1.002802,-1.220039 -2.406948,-1.829762 -4.211696,-1.829762 z m 25.07599,0 c -1.620938,0 -2.958008,0.53505 -4.01121,1.604662 -1.170306,1.1699 -1.75546,2.64865 -1.75546,4.43691 0,1.82175 0.518448,3.25084 1.554603,4.28703 1.086184,1.10305 2.598911,1.65463 4.538552,1.65463 1.804748,0 3.308581,-0.53506 4.511129,-1.60467 l -0.801205,-1.67923 c -1.186612,0.66849 -2.323566,1.00246 -3.410491,1.00246 -0.768593,0 -1.436757,-0.25066 -2.005605,-0.75202 -0.552913,-0.51812 -0.86198,-1.1616 -0.927203,-1.93038 h 7.822303 v -1.153 c 0,-1.65462 -0.434325,-3.00044 -1.303717,-4.03663 -1.002802,-1.220039 -2.406948,-1.829762 -4.211696,-1.829762 z m 12.235598,0 c -0.501401,0 -0.99465,0.133558 -1.479375,0.401009 -0.468789,0.250627 -0.78601,0.551579 -0.953144,0.90256 l -0.300544,-1.002469 h -2.683034 v 11.381022 h 3.109577 v -8.17243 c 0.266821,-0.58497 0.684841,-0.87721 1.253688,-0.87721 0.618136,0 1.202548,0.31737 1.754349,0.95252 l 2.657092,-1.45414 c -0.73598,-1.4206 -1.855147,-2.130862 -3.358609,-2.130862 z m 8.158799,0 c -1.3204,0 -2.46588,0.443145 -3.43607,1.328917 -1.26962,1.186615 -1.9048,2.874295 -1.9048,5.063665 0,1.53763 0.39282,2.80807 1.17809,3.8108 0.91979,1.18665 2.21572,1.77985 3.88706,1.77985 1.36968,0 2.43067,-0.56018 3.18332,-1.67994 0,2.50693 -0.90237,3.76084 -2.70712,3.76084 -1.27073,0 -2.41584,-0.3346 -3.43458,-1.00317 l -0.80268,1.60467 c 1.32039,1.20332 2.88314,1.80515 4.68826,1.80515 1.73768,0 3.07475,-0.50985 4.01121,-1.5294 0.95241,-1.03619 1.42861,-2.51564 1.42861,-4.4376 V 98.947806 h -2.43178 l -0.25052,1.228304 c 0,-0.16713 -0.24199,-0.417761 -0.72671,-0.752029 -0.73561,-0.51804 -1.62983,-0.777375 -2.68229,-0.777375 z m -45.495957,2.231472 c 1.504574,0 2.298737,0.81877 2.38286,2.45657 h -4.839467 c 0.184181,-1.6378 1.002803,-2.45657 2.456607,-2.45657 z m 25.07599,0 c 1.503462,0 2.297255,0.81877 2.381377,2.45657 h -4.837984 c 0.184181,-1.6378 1.002803,-2.45657 2.456607,-2.45657 z m -49.905911,0.0245 c 1.621308,0 2.431406,1.25328 2.431406,3.76014 0,2.40669 -0.810098,3.61031 -2.431406,3.61031 -1.621679,0 -2.43326,-1.20362 -2.43326,-3.61031 0,-2.50686 0.811581,-3.76014 2.43326,-3.76014 z m 12.394578,0 c 0.551801,0 1.028002,0.18392 1.429346,0.55154 0.417278,0.35102 0.68447,0.80202 0.801204,1.35353 v 3.18399 c -0.08301,0.61832 -0.383555,1.16986 -0.901633,1.65458 -0.518448,0.4679 -1.078031,0.70208 -1.67949,0.70208 -1.620938,0 -2.431777,-1.24528 -2.431777,-3.73554 0,-1.13647 0.251256,-2.03851 0.752657,-2.70697 0.501401,-0.6685 1.178089,-1.00321 2.029693,-1.00321 z m 58.60798,0 c 0.53513,0 1.01911,0.19256 1.45344,0.57689 0.45285,0.36769 0.71189,0.8101 0.77748,1.32818 v 2.88359 c 0,0.71864 -0.25088,1.34485 -0.75228,1.87972 -0.5014,0.51804 -1.09434,0.77734 -1.77955,0.77734 -1.63799,0 -2.45735,-1.24528 -2.45735,-3.73554 0,-1.13647 0.25126,-2.03851 0.75266,-2.70697 0.5014,-0.6685 1.16993,-1.00321 2.0056,-1.00321 z m -33.685412,0.0252 c 0.768222,0 1.370052,0.33397 1.805118,1.00247 0.433955,0.66846 0.651488,1.57914 0.651488,2.73232 0,1.1699 -0.233839,2.08984 -0.701517,2.75841 -0.467678,0.66846 -1.10286,1.00247 -1.905176,1.00247 -0.618877,0 -1.162895,-0.20905 -1.630573,-0.62684 -0.454708,-0.41784 -0.705223,-0.93566 -0.751917,-1.55398 v -2.73306 c 0,-0.71864 0.242733,-1.32832 0.727458,-1.82976 0.501401,-0.50133 1.102861,-0.75203 1.805119,-0.75203 z"
       style="font-style:normal;font-variant:normal;font-weight:bold;font-stretch:normal;font-size:17.8986px;line-height:1.25;font-family:Tajawal;-inkscape-font-specification:'Tajawal Bold';font-variant-ligatures:normal;font-variant-caps:normal;font-variant-numeric:normal;font-variant-east-asian:normal;letter-spacing:-0.284861px;word-spacing:0px;fill:#2185d0;fill-opacity:1;stroke:none;stroke-width:0.626737"
       id="path6736" />
  </g>
</svg>
